{
  "name": "Niti Aayog API DOc",
  "version": "2.2.0",
  "description": "Niti Aayog API Documentation",
  "title": "Niti Aayog API Documentation",
  "url": "http://localhost:8000/",
  "sampleUrl": false,
  "defaultVersion": "0.0.0",
  "apidoc": "0.3.0",
  "generator": {
    "name": "apidoc",
    "time": "2020-04-23T07:55:10.127Z",
    "url": "http://apidocjs.com",
    "version": "0.20.1"
  }
}
